verilog work "TIMER.v"
verilog work "SiTCP_XC7K_32K_BBT_V50.V"
verilog work "WRAP_SiTCP_GMII_XC7K_32K.V"
verilog work "SYSDCM.v"
verilog work "RBCP_REG.v"
verilog work "fifo16_8.v"
verilog work "dcm25.v"
verilog work "gl1TCP.v"
