C:\Users\shotasuzuki\Desktop\MyWork\MyDesigns\PT7\TestDesign\P7GLINK\gl1TCP.ngc 1445939852
C:\Users\shotasuzuki\Desktop\MyWork\MyDesigns\PT7\TestDesign\P7GLINK/fifo16_8.ngc 1363141538
C:\Users\shotasuzuki\Desktop\MyWork\MyDesigns\PT7\TestDesign\P7GLINK/SiTCP_XC7K_32K_BBT_V50.ngc 1341195922
OK
